/Volumes/TomNguyen/hplace/hplace-api/src/main/java/com/hireplace/datastore/RecruiterDataStore.java
/Volumes/TomNguyen/hplace/hplace-api/src/main/java/com/hireplace/validation/ModelValidator.java
/Volumes/TomNguyen/hplace/hplace-api/src/main/java/com/hireplace/business/RecruiterBusiness.java
/Volumes/TomNguyen/hplace/hplace-api/src/main/java/com/hireplace/datastore/OfyHelper.java
/Volumes/TomNguyen/hplace/hplace-api/src/main/java/com/hireplace/model/request/RecruiterRequest.java
/Volumes/TomNguyen/hplace/hplace-api/src/main/java/com/hireplace/model/StatusResponse.java
/Volumes/TomNguyen/hplace/hplace-api/src/main/java/com/hireplace/api/BaseAPI.java
/Volumes/TomNguyen/hplace/hplace-api/src/main/java/com/hireplace/model/response/ItemResponse.java
/Volumes/TomNguyen/hplace/hplace-api/src/main/java/com/hireplace/api/RecruiterAPI.java
/Volumes/TomNguyen/hplace/hplace-api/src/main/java/com/hireplace/model/response/BaseResponse.java
/Volumes/TomNguyen/hplace/hplace-api/src/main/java/com/hireplace/model/Paging.java
/Volumes/TomNguyen/hplace/hplace-api/src/main/java/com/hireplace/validation/CommonValidator.java
/Volumes/TomNguyen/hplace/hplace-api/src/main/java/com/hireplace/validation/EmailRequired.java
/Volumes/TomNguyen/hplace/hplace-api/src/main/java/com/hireplace/model/request/RecruiterRequestEdit.java
/Volumes/TomNguyen/hplace/hplace-api/src/main/java/com/hireplace/validation/LengthRequired.java
/Volumes/TomNguyen/hplace/hplace-api/src/main/java/com/hireplace/model/request/BaseRequest.java
/Volumes/TomNguyen/hplace/hplace-api/src/main/java/com/hireplace/model/response/PayloadResponse.java
/Volumes/TomNguyen/hplace/hplace-api/src/main/java/com/hireplace/validation/Required.java
/Volumes/TomNguyen/hplace/hplace-api/src/main/java/com/hireplace/model/ErrorResponse.java
/Volumes/TomNguyen/hplace/hplace-api/src/main/java/com/hireplace/validation/UrlRequired.java
/Volumes/TomNguyen/hplace/hplace-api/src/main/java/com/hireplace/entity/RecruiterEntity.java
/Volumes/TomNguyen/hplace/hplace-api/src/main/java/com/hireplace/model/response/RecruiterResponse.java
